755979 561169 509
956360 296197 525
687671 664389 442
396713 552907 470
659448 755438 504
790418 974453 525
555758 720175 509
367022 120727 443
373425 700680 509
575714 332444 470
417983 386372 449
781654 5615 509
123162 614386 470
721555 205979 509
519886 865179 525
652846 43816 509
512941 121793 470
3889 313019 443
460257 846680 525
416287 486531 444
974643 867200 507
761083 95160 509
789751 226043 509
211058 703483 509
162071 917185 525
203329 252020 443
708181 609530 509
576125 456570 470
874313 542431 525
70237 566578 470
842024 498985 525
7558 137997 354
163359 561213 470
198952 491093 449
903375 143654 525
823650 797200 450
246119 300169 407
578585 403480 470
572111 739439 509
138770 67939 354
449050 486980 444
567540 210541 470
234724 129914 443
206391 333606 443
204981 656695 509
116537 279863 443
954015 393651 525
277582 521767 470
77066 634670 509
914084 20285 525
237672 314743 407
364572 41280 443
219765 654286 509
120880 750904 509
413631 162229 449
929494 52189 525
976220 42705 525
767187 609286 509
4795 447652 449
547018 201204 470
40583 288733 443
625225 939328 525
457288 170075 449
481455 705225 509
420461 553495 470
218870 62041 386
543028 918526 525
519185 643338 509
218564 19009 386
136729 157127 383
7712 399721 443
64179 922153 525
447893 8979 449
254827 626604 509
717395 507041 509
866529 758156 525
612445 887670 525
459892 258540 449
315740 862121 525
39995 841849 525
976766 534383 525
904845 300586 525
511440 827742 509
942159 456726 525
364242 559972 470
178783 976682 525
121033 237809 443
439353 978122 525
149799 327373 443
553521 446064 470
551513 879197 525
487269 512699 470
204235 77511 383
518826 613706 452
23517 481410 449
342763 497251 449
662698 597584 509
556345 997692 525
835663 132638 509
180766 500388 449
660267 85427 509
442133 109424 449
275111 838040 525
962988 47991 525
657261 45077 509
284460 854516 525
74474 26278 340
981054 187903 525
535824 416982 470
74499 715223 509
240219 546325 470
549485 761899 509
751280 575311 509
304360 554141 470
376528 29112 443
204369 860658 525
126851 616634 470
525885 239327 470
305840 244749 407
907601 358997 525
237328 942754 525
617296 211145 470
535638 402143 470
675561 634573 442
533916 937796 525
211713 624721 470
88612 788763 509
887844 395366 525
592809 537038 452
776934 510186 509
96605 143219 375
712191 495093 509
969313 258787 525
9526 46176 324
417223 810854 509
266691 553775 470
946476 635271 525
282864 593840 470
388450 563302 470
556747 649958 509
425350 186838 449
473188 169606 449
66902 369168 443
282020 98054 443
832015 141503 509
436624 269817 449
775267 966983 525
300186 9098 443
195698 407818 443
756949 973160 525
233176 654595 509
267066 493703 449
1046 447352 449
703636 431575 509
421791 533547 470
123780 483727 449
91285 368480 443
454012 365582 449
632000 636162 416
970505 106789 525
115549 303942 443
293547 317355 384
686823 59463 509
886568 909874 445
65373 696552 509
486268 994014 525
144246 422212 449
605397 949061 525
168248 929022 525
664372 706689 504
949483 950138 352
775405 446530 509
271252 249739 407
534797 368702 470
570395 560686 421
554954 835691 509
646802 422632 509
854050 56409 525
971520 352177 525
765681 405832 509
692318 805522 504
424685 923707 525
892225 576511 525
740314 42582 509
364191 921434 525
67351 826839 509
980270 510487 525
291416 194363 443
678307 2435 509
925833 526282 525
19585 623305 470
911801 482505 525
197988 898481 525
488645 744026 509
871819 245069 525
118425 737192 509
875866 97720 525
752470 522115 509
454325 75087 449
101008 413785 449
516748 22179 470
961628 20988 525
133936 216208 383
34514 532227 470
90347 963420 525
559871 48399 470
419173 9579 449
982855 381599 525
251722 958205 525
358695 904645 525
443505 856327 525
960852 562657 525
113428 944265 525
100809 40334 351
11590 512015 470
416725 605036 470
575128 901114 525
770986 244489 509
895000 708362 525
204180 364908 443
511656 637673 509
85572 660247 509
91273 302790 443
577340 470177 470
277110 604356 470
587872 680658 509
642082 582457 509
722423 344981 509
191628 44685 383
636206 570883 509
328213 644567 509
653927 596868 509
503065 125902 449
497488 206763 449
465660 490343 413
506259 632707 509
599312 771845 509
343623 730244 509
573568 482113 470
326465 845203 525
911070 972039 507
817249 738236 468
310212 172133 443
451293 66130 449
963783 125767 525
410127 588597 470
291295 786583 509
650116 965194 525
408973 838394 525
416518 233595 449
963582 896951 507
513109 450501 470
574112 949172 525
243906 38620 443
471943 923415 525
698466 42656 509
