538618 586294 452
365910 620031 470
854478 384612 525
984550 605308 525
834718 29843 509
364769 250465 441
676262 369713 509
999240 809792 525
424574 963874 525
460358 198973 449
587244 910697 525
466835 367642 449
274500 217024 443
527195 428738 470
778325 414472 509
379555 993639 525
253429 309570 407
664961 419767 509
901752 57529 525
997893 111010 525
393794 33118 443
104188 134641 354
172325 870357 525
675048 692094 442
338146 775759 509
106450 631647 509
269384 361020 441
97728 182156 383
789491 778354 437
308598 660324 509
274179 888561 525
21286 865664 525
994483 242698 525
870268 156414 525
523640 726991 509
973945 357763 525
450709 975680 525
822390 235760 509
270924 921244 525
554317 173209 470
813841 448243 509
57980 567193 470
482216 468502 413
610291 453411 470
574644 214764 470
489287 414427 444
797435 468450 509
219690 27765 386
841596 629316 525
774026 185025 509
303184 933293 525
488768 335147 449
115132 849917 525
50244 367716 443
454190 396491 449
765388 750836 424
286689 272417 389
977899 284384 525
242562 272937 407
386486 300738 441
30451 203094 383
585651 264994 470
652576 595115 509
815685 739701 468
333723 415649 449
828574 120868 509
540517 21610 470
552099 12775 470
59659 264298 443
293654 970157 525
288624 943521 525
8126 603597 470
161459 568221 470
700430 668210 442
851411 895318 445
320733 217547 443
151833 523303 470
940327 651455 525
346618 763394 509
567448 456143 470
901884 23910 525
203831 878889 525
155273 583189 470
338262 674826 509
830898 659818 504
368321 321971 441
821966 872872 525
56332 365703 443
70589 588266 470
686093 375485 509
535254 368666 470
369168 390131 436
80267 344549 443
940413 986690 458
109154 357804 443
940191 275408 525
430856 581065 470
806946 609316 509
891481 242132 525
954615 1264 525
17473 87721 351
750457 374030 509
952588 791733 525
316830 824198 509
602567 919288 525
449161 745928 509
627106 631500 341
894000 957659 507
92677 295131 443
853486 338410 525
820705 46053 509
716747 769313 468
720755 236358 509
699408 745738 504
604540 978730 525
354626 401732 436
140147 941416 525
688107 264055 509
299091 155573 443
739764 477464 509
148024 749081 509
756129 783177 468
566102 507436 470
384259 667838 509
327155 221225 443
960927 717208 525
165988 654644 509
169858 598455 470
461215 927320 525
434244 600079 470
412826 242884 449
354131 558031 470
637078 174301 509
601578 655902 509
823624 38296 509
184148 176055 365
391041 879302 525
65605 46605 340
912606 228293 525
567692 90041 470
46022 398240 443
925804 997240 507
153780 634980 509
641334 76468 509
450174 126773 449
95995 510912 449
775401 235851 509
741504 8438 509
545627 805203 509
290252 839512 525
621709 315406 470
206274 236260 443
627802 801388 504
854612 223049 525
529606 496783 470
328526 468316 449
521292 503491 470
929048 63360 525
960195 469783 525
300824 39301 443
844321 895462 445
208367 726410 509
565284 40620 470
25647 545989 470
575093 703824 509
253773 196988 443
11691 267735 443
882191 114234 525
841123 740875 525
454281 325 449
528623 932485 525
215928 491880 449
590167 39424 470
40103 692324 509
982477 708120 525
673134 61123 509
592232 508792 470
299708 984307 525
754426 522382 509
312891 615712 470
920666 504898 525
231827 341926 407
345764 167743 443
709871 144659 509
796781 42970 509
789630 800612 468
282273 312293 389
284031 101164 443
267655 135881 443
376440 531707 470
867523 379551 525
703246 732766 504
461832 988699 525
133040 117239 344
126285 28805 354
393044 356675 436
900297 22700 525
745757 713461 424
509976 304058 449
439925 113299 449
945372 873824 507
768609 452603 509
982270 638051 525
126798 509089 449
757933 744076 424
321643 94577 443
814901 524757 509
228793 186788 386
477076 4277 449
938750 862691 476
962275 286519 525
665419 353282 509
281665 260194 407
605916 122381 470
55755 725454 509
28404 114537 354
817021 11754 509
93387 114390 354
256101 547398 470
946998 544893 525
896111 559730 525
470038 941124 525
666300 276361 509
128081 138828 344
492386 967711 525
149375 757055 509
855496 565670 525
376370 573940 470
723088 490955 509
860305 995996 507
972278 724012 525
891208 50335 525
1889 184468 383
437286 204372 449
428661 311521 449
929877 803112 525
442436 760746 509
907680 915612 476
198189 365296 443
110990 108310 310
816950 769521 468
14695 832386 509
