511303 887528 525
784595 371735 509
59423 748454 509
895748 564698 525
585562 77633 470
491312 362207 449
179176 693409 509
183648 308597 443
760142 505247 509
572231 430284 470
260739 392398 441
940623 530446 525
438675 662885 509
46672 346063 443
804258 882728 525
797651 859014 525
417289 731544 509
597145 45629 470
341589 345686 353
497535 169616 449
979829 286372 525
969012 932104 507
64144 759727 509
809324 458619 509
26134 891046 525
922172 746661 525
823389 338281 509
727976 876598 525
452154 858084 525
714488 514046 509
241712 104061 443
801000 547618 509
267027 916662 525
656180 321676 509
961070 82907 525
930406 921608 476
712963 55287 509
802380 535260 509
947349 247563 525
662348 641976 429
652828 51540 509
137936 467690 449
193666 530919 470
90482 644984 509
298885 280268 389
26662 516573 470
225826 243520 443
150898 461413 449
920793 56355 525
871718 398294 525
400732 921272 525
539649 954009 525
888516 839443 445
388937 424247 449
962155 20458 525
959467 713910 525
909794 857713 445
816601 358583 509
410471 720533 509
858297 807613 525
512744 374469 470
320870 457532 449
149696 151678 370
597545 105547 470
818774 140708 509
392587 459452 449
477699 871081 525
279819 549854 470
446312 511362 444
176063 920323 525
737548 697620 504
535072 501994 470
922407 813977 525
184092 765376 509
60243 27431 340
132727 354000 443
540748 9154 470
569305 155098 470
450332 618687 470
476910 346255 449
855080 908409 445
203839 865445 525
482732 582774 470
253096 247906 350
444537 524148 470
193368 830203 509
230065 267718 443
579568 670866 509
637281 545607 509
605117 709348 509
939846 295101 525
268797 351285 441
382553 641480 509
165522 619457 470
732447 250378 509
895120 500891 525
381279 459153 449
395300 438893 449
662594 445468 509
529900 986720 525
702165 41858 509
859145 845969 419
963273 952590 414
314275 488279 449
957109 697123 525
144574 858883 525
818471 626390 504
822735 736618 468
485788 814576 509
894124 930634 476
573393 522563 452
243257 481445 449
168249 300188 443
476390 833963 509
3886 193299 383
394045 807318 509
928674 929279 339
52030 251512 443
889321 894251 370
933077 333980 525
938284 8465 525
117734 145997 375
614539 921408 525
665767 284623 509
824299 376551 509
243752 623191 470
719806 149189 509
35752 318129 443
141668 768904 509
949819 389973 525
438731 37717 449
879562 468568 525
811294 461791 509
582302 470913 470
804811 988282 525
509077 834934 509
210050 12634 383
540999 187267 470
261677 271317 407
23650 763294 509
630076 342267 509
561160 289439 470
490073 324205 449
539795 224329 470
733570 208826 509
882843 554551 525
106824 772471 509
164432 702539 509
505570 115132 449
515820 811798 509
93522 728960 509
911306 41324 525
316876 748875 509
401684 20309 443
354286 801236 509
114353 842767 525
52119 924460 525
458871 703456 509
517216 11645 470
607688 283488 470
48652 422076 449
649380 798237 504
812441 646095 504
405427 223518 443
75335 741537 509
344574 925705 525
329925 543110 470
879197 896987 445
614620 197141 470
684263 572556 509
738959 299545 509
27766 403230 443
299511 134447 443
622591 730565 509
827628 533798 509
464874 776252 509
24492 920040 525
202164 211642 373
994088 764703 525
403078 612820 470
415701 275044 449
506968 984514 525
469861 616157 470
836641 803 509
224338 479531 449
302875 119295 443
152107 571261 470
164773 56505 383
188826 687790 509
59770 383173 443
391551 717729 509
656925 952071 525
562005 799363 509
497682 633924 509
264318 209632 443
37795 566794 470
485909 511263 426
323247 505952 449
29077 276457 443
533936 905722 525
458337 389441 449
260781 542073 470
257690 453991 449
276016 142910 443
485751 42917 449
138199 231591 443
309712 431142 449
8982 636122 509
782798 651806 504
712839 724917 411
755622 964487 525
290991 440051 449
550122 917246 525
560449 419787 470
118025 198903 383
814409 824192 450
432234 278589 449
658598 47575 509
132123 396456 443
237727 795923 509
824141 551647 509
170142 115496 383
707053 987252 525
710588 360685 509
656811 976075 525
11119 880039 525
457056 370076 449
431904 657664 509
248415 277602 407
64271 691485 509
639762 470735 509
939607 496288 525
156819 364169 443
226995 123573 386
797033 518451 509
745038 866383 525
644618 684952 442
167179 487849 449
856402 213854 525
597646 37037 470
327486 610180 470
791189 714237 468
41651 800759 509
825475 277099 509
105926 1454 351
987737 440842 525
521600 160772 470
620286 749852 509
