32856 551084 470
511799 50898 449
562368 904403 525
477197 564639 470
150126 445187 449
918023 260813 525
606882 782620 509
70687 845394 525
717862 499203 509
198489 540424 470
207125 117638 383
248662 751916 509
616565 537318 452
696419 834749 504
599050 267452 470
197481 431176 449
382156 281887 441
607201 484826 470
365061 883768 525
953304 213536 525
258396 66283 443
535000 286514 470
750429 723980 424
659092 593148 509
617584 641192 509
899103 312337 525
541576 124421 470
871557 761785 525
872356 919113 476
852013 717331 525
465022 683063 509
868279 165207 525
811002 31573 509
840449 508130 525
967528 707738 525
581125 152251 470
335946 850800 525
308293 773208 509
929143 124150 525
403482 769336 509
701696 459043 509
844643 135425 525
207416 642335 509
200212 447744 449
343504 497286 449
106369 335078 443
492672 524392 470
785405 641554 504
67107 265039 443
625472 919870 525
908796 80613 525
899877 259342 525
961404 554113 525
776014 622458 509
886397 597124 525
240233 266179 407
793617 917545 525
98367 873577 525
606967 856029 525
648183 232796 509
611789 100559 470
702337 828730 504
936325 352788 525
415000 614947 470
559961 466289 470
436712 446458 400
35539 105888 351
123958 415601 449
388408 495596 449
977636 612683 525
922248 717694 525
342371 273011 389
44682 23446 324
601795 465108 470
367762 366201 348
433726 10010 449
36629 336207 443
50539 173702 383
452967 823379 509
714548 151855 509
347018 534175 470
447199 270798 449
493050 960036 525
548539 405823 470
22526 953637 525
539344 477757 470
560662 366342 470
44961 476570 449
858943 493337 525
277880 818257 509
395565 926618 525
767963 557115 509
471951 97237 449
843307 346699 525
663712 200801 509
271252 290931 389
310121 45998 443
35553 469973 449
90220 35117 351
310861 743279 509
939584 376367 525
228151 878799 525
362645 539600 470
946121 524940 525
379352 173531 443
262790 41293 443
729011 347337 509
138559 322978 443
376341 343329 441
540141 876896 525
360349 883272 525
353825 277064 441
104613 774623 509
510756 907031 525
517062 238600 470
135799 273707 443
201224 134997 383
58469 115300 354
411815 262183 449
574794 440503 470
390894 610313 470
834371 886055 525
265064 49098 443
362920 134582 443
244228 257852 363
23602 905529 525
792462 748097 468
40072 811337 509
31689 281996 443
222006 949821 525
931176 79269 525
425488 592958 470
727350 734669 380
699417 421101 509
209819 14758 383
574966 403896 470
187334 510481 449
233283 159127 443
138908 979797 525
452730 964040 525
347337 491016 449
900652 940856 507
163901 168425 352
65509 980090 525
797185 173439 509
322227 892437 525
573514 707636 509
342030 777557 509
278934 199350 443
911308 282850 525
197641 881660 525
897832 700565 525
822660 710224 468
92220 590535 470
353879 669281 509
994910 219105 525
915099 192123 525
296710 928344 525
443528 145307 449
311249 112538 443
235884 506701 449
592261 808864 509
963498 821907 525
513602 988310 525
710205 729046 411
55931 181754 383
901069 183828 525
659594 527378 509
282329 205265 443
453676 249277 449
502944 966431 525
235727 788033 509
536362 989671 525
673536 848439 525
721682 32143 509
902865 726605 525
9030 299573 443
731541 392962 509
208159 550716 470
957439 424865 525
939544 527457 525
188407 390649 443
449586 792428 509
58849 711214 509
969759 499874 525
751294 43774 509
501645 708916 509
689503 380549 509
814346 649900 504
372467 414417 449
477533 159970 449
917284 698438 525
230601 483966 449
989333 772759 525
2852 809331 509
111551 767031 509
903348 478911 525
141211 160846 383
261650 594017 470
618677 364194 470
197771 107739 383
653305 328655 509
989445 714683 525
823740 801954 450
769246 681951 504
772954 843768 525
471290 597177 470
218340 158125 386
682952 357739 509
960724 835160 525
50864 115078 354
492396 658995 509
147519 61211 375
526124 770298 509
966575 677067 525
24763 302731 443
594231 788927 509
822399 855203 525
995848 635174 525
356430 439059 449
608226 225931 470
222368 324815 443
475610 209804 449
529688 782144 509
259885 9201 443
253386 333296 407
279437 995668 525
732341 493474 509
866680 877080 432
989293 858567 507
925199 126452 525
752439 70925 509
690270 716512 504
67401 779087 509
934311 292533 525
364873 686510 509
637399 301711 509
970360 307886 525
773469 317477 509
399631 104491 443
153673 40427 375
317895 369875 441
448911 534640 470
268481 987178 525
368629 261979 441
531211 654682 509
548925 875380 525
