153287 774183 509
706563 466777 509
890510 196024 525
274953 631170 509
226182 812416 509
416854 147254 449
140892 342673 443
746896 881550 525
522370 750233 509
663705 31400 509
196907 972070 525
833996 465442 509
830159 385310 509
546412 334881 470
510670 611453 470
710560 43049 509
963722 261008 525
785665 638568 504
272135 92757 443
152963 694337 509
240447 9334 443
510092 372101 449
245779 159359 443
383503 77687 443
750047 310855 509
882541 961911 507
859229 737584 525
683546 152482 509
290805 371429 441
775048 137945 509
475837 674442 509
782970 884716 525
833896 431461 509
188328 921570 525
30456 834563 509
238335 606634 470
537643 819557 509
247275 875288 525
374210 836770 509
913929 48889 525
565211 658606 509
933780 776640 525
56880 427455 449
501136 153333 449
248839 530544 470
200824 648911 509
338555 380047 441
498247 69405 449
86026 568419 470
741983 169857 509
820001 946509 525
451128 991987 525
888011 272788 525
488999 232261 449
983728 301907 525
116299 134771 344
563940 458870 470
921034 144686 525
275242 59359 443
383323 202597 443
858544 759802 525
550892 493768 470
270322 553541 470
398877 774512 509
962296 116770 525
98214 847777 525
61743 577932 470
318916 649067 509
653289 638550 416
651097 431703 509
838378 101569 525
387374 320237 441
758985 783280 468
696907 841626 525
410662 968613 525
821109 47368 509
127044 219950 386
951818 91868 525
811453 691501 504
949762 691145 525
872198 50829 525
607924 613423 403
20387 397472 443
408362 213192 443
93704 343938 443
71064 972106 525
151790 614224 470
329648 786293 509
548554 61720 470
451151 265279 449
460766 66484 449
932993 165878 525
685828 290293 509
686403 555052 509
187872 807267 509
356635 569502 470
725373 979170 525
56423 337922 443
526587 410214 470
747154 446572 509
120432 964045 525
328356 683833 509
663061 277144 509
116066 684531 509
18748 368259 443
440651 285700 449
247721 708135 509
493499 484514 426
763936 551049 509
753735 686153 504
339482 167102 443
804121 228854 509
949168 505909 525
204325 731713 509
385033 398560 436
431813 930757 525
150508 757657 509
411662 983380 525
67828 474158 449
102310 224877 386
905746 773418 525
109169 773732 509
727584 266973 509
678722 320408 509
466644 357487 449
820811 891397 525
927248 30679 525
45454 440557 449
109336 780080 509
522286 224822 470
315542 10614 443
35389 526636 470
164218 932641 525
74585 429504 449
127535 526528 470
856569 383367 525
768856 489586 509
526223 567236 452
605577 939803 525
977633 464944 525
810325 610421 509
105444 919203 525
632006 853340 525
194856 537576 470
933059 490676 525
478086 54176 449
134087 447538 449
801988 610893 509
178207 276421 443
738503 690613 504
945293 758502 525
857676 677759 525
484075 624888 470
736402 851298 525
659886 845169 525
739069 941390 525
760225 582429 509
119669 531875 470
430164 952508 525
338791 92277 443
369217 659313 509
584108 216797 470
126967 98897 354
678052 270003 509
497386 438277 444
924764 577723 525
143314 572545 470
303168 352036 441
563161 31794 470
667814 934511 525
878650 456145 525
291453 963350 525
752754 763091 424
607150 445884 470
245562 754308 509
303935 386479 441
252372 84602 443
822940 810261 450
908425 408643 525
525275 182324 470
169979 808547 509
919111 908379 476
468562 746238 509
714714 1056 509
391275 943598 525
408653 487605 449
893469 282868 525
744841 666392 504
691844 611574 509
984464 710118 525
388333 578833 470
29399 274381 443
621226 170264 470
488752 976126 525
71038 779758 509
311287 580863 470
241814 996478 525
117208 720662 509
712802 174451 509
91379 96471 333
958973 152798 525
974937 147449 525
916961 541592 525
908066 523759 525
557650 684197 509
426578 254877 449
435202 182449 449
789611 200148 509
575217 212256 470
268873 988920 525
890307 941130 507
250039 317662 407
432700 941269 525
481699 357245 449
122861 199325 383
281201 288652 389
155916 876300 525
459269 44833 449
854392 683462 525
172132 228551 386
604387 995510 525
885144 370470 525
30078 674189 509
430429 370240 449
239542 375240 441
963578 936536 507
122181 929829 525
776201 11902 509
512308 880135 525
669892 91189 509
901937 166567 525
564606 459245 470
516925 726337 509
619758 744274 509
684909 999648 525
632409 544192 509
238141 413103 449
462668 267642 449
560137 856958 525
46624 643482 509
495715 613103 470
375959 949131 525
567198 360286 470
965219 743801 525
764627 509923 509
869399 313689 525
270642 913564 525
